{
  "count": 18,
  "firstItemOnPage": 10,
  "hasNextPage": false,
  "hasPreviousPage": true,
  "isFirstPage": false,
  "isLastPage": true,
  "lastItemOnPage": 17,
  "numberOfFirstItemOnPage": 0,
  "numberOfLastItemOnPage": 17,
  "page": 1,
  "pageCount": 2,
  "pageNumberIsGood": true,
  "pageSize": 10,
  "rows": [
    {
      "id": 869,
      "description": "Quaerat provident excepturi ducimus, facere qui numquam beatae sequi ea autem doloribus."
    },
    {
      "id": 1171,
      "description": "Perferendis voluptates quis officiis ipsam dolore itaque quaerat provident excepturi ducimus."
    },
    {
      "id": 2242,
      "description": "Lorem ipsum dolor, sit amet consectetur adipisicing elit. Perferendis voluptates quis officiis ipsam dolore itaque quaerat provident excepturi ducimus, facere qui numquam beatae sequi ea autem doloribus ipsum! Atque, totam!"
    },
    {
      "id": 6909,
      "description": "Quaerat provident excepturi ducimus, facere qui numquam beatae sequi ea autem doloribus."
    },
    {
      "id": 1471,
      "description": "Perferendis voluptates quis officiis ipsam dolore itaque quaerat provident excepturi ducimus."
    },
    {
      "id": 12,
      "description": "Lorem ipsum dolor, sit amet consectetur adipisicing elit. Perferendis voluptates quis officiis ipsam dolore itaque quaerat provident excepturi ducimus, facere qui numquam beatae sequi ea autem doloribus ipsum! Atque, totam!"
    },
    {
      "id": 79,
      "description": "Quaerat provident excepturi ducimus, facere qui numquam beatae sequi ea autem doloribus."
    },
    {
      "id": 1911,
      "description": "Perferendis voluptates quis officiis ipsam dolore itaque quaerat provident excepturi ducimus."
    }
  ]
}
