{
  "count": 18,
  "firstItemOnPage": 0,
  "hasNextPage": true,
  "hasPreviousPage": false,
  "isFirstPage": true,
  "isLastPage": false,
  "lastItemOnPage": 17,
  "numberOfFirstItemOnPage": 0,
  "numberOfLastItemOnPage": 17,
  "page": 0,
  "pageCount": 1,
  "pageNumberIsGood": true,
  "pageSize": 10,
  "rows": [
    {
      "id": 42,
      "description": "Lorem ipsum dolor, sit amet consectetur adipisicing elit. Perferendis voluptates quis officiis ipsam dolore itaque quaerat provident excepturi ducimus, facere qui numquam beatae sequi ea autem doloribus ipsum! Atque, totam!"
    },
    {
      "id": 69,
      "description": "Quaerat provident excepturi ducimus, facere qui numquam beatae sequi ea autem doloribus."
    },
    {
      "id": 171,
      "description": "Perferendis voluptates quis officiis ipsam dolore itaque quaerat provident excepturi ducimus."
    },
    {
      "id": 31,
      "description": "Lorem ipsum dolor, sit amet consectetur adipisicing elit. Perferendis voluptates quis officiis ipsam dolore itaque quaerat provident excepturi ducimus, facere qui numquam beatae sequi ea autem doloribus ipsum! Atque, totam!"
    },
    {
      "id": 56,
      "description": "Quaerat provident excepturi ducimus, facere qui numquam beatae sequi ea autem doloribus."
    },
    {
      "id": 101,
      "description": "Perferendis voluptates quis officiis ipsam dolore itaque quaerat provident excepturi ducimus."
    },
    {
      "id": 44,
      "description": "Lorem ipsum dolor, sit amet consectetur adipisicing elit. Perferendis voluptates quis officiis ipsam dolore itaque quaerat provident excepturi ducimus, facere qui numquam beatae sequi ea autem doloribus ipsum! Atque, totam!"
    },
    {
      "id": 591,
      "description": "Quaerat provident excepturi ducimus, facere qui numquam beatae sequi ea autem doloribus."
    },
    {
      "id": 222,
      "description": "Perferendis voluptates quis officiis ipsam dolore itaque quaerat provident excepturi ducimus."
    },
    {
      "id": 492,
      "description": "Lorem ipsum dolor, sit amet consectetur adipisicing elit. Perferendis voluptates quis officiis ipsam dolore itaque quaerat provident excepturi ducimus, facere qui numquam beatae sequi ea autem doloribus ipsum! Atque, totam!"
    }
  ]
}
